Baculovirus	38618
BK_Virus	35352
Cytomegalovirus	35358
Epstein-Barr_Virus	35359
Herpes_Simplex_Virus_1	35355
Herpes_Simplex_Virus_2	35354
Human_Adenovirus	38582
Human_Herpes_Virus_6_A	35136
Human_Herpes_Virus_6_B	34984
JC_Virus	35360
Oligo298_dnanorm	38615
Oligo299_dnanorm	38592
Oligo301_dnanorm	38614
Oligo302_dnanorm	38619
Oligo303_dnanorm	38593
Oligo304_dnanorm	38594
Oligo305_dnanorm	38617
Oligo306_dnanorm	38616
Parvo_Virus_B19	38640
Torque_Teno_Virus	35348
Varicella_Zoster_Virus	35357
